{
    "Locations": [
        {
            "id": "1",
            "name": "austin",
            "population": "Population:946,177",
            "description": "Known as the live music capital of the world and the capital of Texas, Austin is a youthful, vibrant community with an active event calendar and nightlife.",
            "location_stores": [
                {"id": "1", "name": "walmart"},
                {"id": "2", "name": "HEB"}
            ],
            "location_items": [
                {"id": "1", "name": "eggs"},
                {"id": "2", "name": "milk"}
            ]
        },
        {
            "id": "2",
            "name": "dallas",
            "population": "Population:1.29 million",
            "description": "Dallas is the 9th largest city in the US and the third largest in Texas.Dallas today is a cosmopolitan city known for its high concentration of restaurants and shopping centres.",
            "location_stores": [
                {"id": "1", "name": "walmart"},
                {"id": "2", "name": "kroger"},
                {"id": "2", "name": "HEB"}
            ],
            "location_items": [
                {"id": "1", "name": "strawberries"},
                {"id": "2", "name": "milk"}
            ]
        },
        {
            "id": "3",
            "name": "houston",
            "population": "Population:2.29 million",
            "description": "Houston is the most populous city in Texas and the fourth largest city in the United States. The city attracts visitors and transplants with a wonderful mix of world-class arts, booming business, pro sports and award-winning cuisine.",
            "location_stores": [
                {"id": "1", "name": "walmart"},
                {"id": "2", "name": "kroger"},
                {"id": "2", "name": "HEB"}
            ],
            "location_items": [
                {"id": "1", "name": "strawberries"},
                {"id": "2", "name": "milk"},
                {"id": "2", "name": "eggs"}
            ]
        }
    ]
}